1 Gráficos básicos en el análisis de datos | Gráficos con R
…
Otros argumentos relacionados con los ejes y el titulo del gráfico son: main: titulo del gráfico; xlab, ylab: etiquetas los los ejes; log: ejes en escala log. Los valores permitidos son “x”, “y” o bien “xy”.

1.1 Distribución de una variable

Para intentar ver algo en un conjunto de datos, lo primero que se puede hacer es averiguar como se distribuyen sus valores. En R, hay funciones básicas (summary, stem, table, …) que permiten tener una idea de esta distribución.

El tipo de representación gráfica de la distribución cambia según la naturaleza de la variable en estudio. Una variable cuantitativa toma valores numéricos. Para una variable cuantitativa, se suele recurrir a un histograma o bien a un diagrama de caja para describir su distribución. Mientras que para variables cualitativas (o categóricas), se utilizará un diagrama de barras.

1.1.1 Histograma

Para ilustrar la descripción gráfica de la distribución de una variable numérica, se utiliza la base de datos msleep que contiene información sobre el tiempo de sueño (en horas) de mamíferos:

msleep # ?msleep para más detalles

## # A tibble: 83 x 11
##    name  genus vore  order conservation sleep_total sleep_rem sleep_cycle
##    <chr> <chr> <chr> <chr> <chr>              <dbl>     <dbl>       <dbl>
##  1 Chee~ Acin~ carni Carn~ lc                  12.1      NA        NA    
##  2 Owl ~ Aotus omni  Prim~ <NA>                17         1.8      NA    
##  3 Moun~ Aplo~ herbi Rode~ nt                  14.4       2.4      NA    
##  4 Grea~ Blar~ omni  Sori~ lc                  14.9       2.3       0.133
##  5 Cow   Bos   herbi Arti~ domesticated         4         0.7       0.667
##  6 Thre~ Brad~ herbi Pilo~ <NA>                14.4       2.2       0.767
##  7 Nort~ Call~ carni Carn~ vu                   8.7       1.4       0.383
##  8 Vesp~ Calo~ <NA>  Rode~ <NA>                 7        NA        NA    
##  9 Dog   Canis carni Carn~ domesticated        10.1       2.9       0.333
## 10 Roe ~ Capr~ herbi Arti~ lc                   3        NA        NA    
## # ... with 73 more rows, and 3 more variables: awake <dbl>, brainwt <dbl>,
## #   bodywt <dbl>
…
