1 Gráficos básicos en el análisis de datos | Gráficos con R
…
Otros argumentos relacionados con los ejes y el titulo del gráfico son: main: titulo del gráfico; xlab, ylab: etiquetas los los ejes; log: ejes en escala log. Los valores permitidos son “x”, “y” o bien “xy”.

1.1 Distribución de una variable

Para intentar ver algo en un conjunto de datos, lo primero que se puede hacer es averiguar como se distribuyen sus valores. En R, hay funciones básicas (summary, stem, table, …) que permiten tener una idea de esta distribución.

El tipo de representación gráfica de la distribución cambia según la naturaleza de la variable en estudio. Una variable cuantitativa toma valores numéricos. Para una variable cuantitativa, se suele recurrir a un histograma o bien a un diagrama de caja para describir su distribución. Mientras que para variables cualitativas (o categóricas), se utilizará un diagrama de barras.

1.1.1 Histograma

Para ilustrar la descripción gráfica de la distribución de una variable numérica, se utiliza la base de datos msleep que contiene información sobre el tiempo de sueño (en horas) de mamíferos:

msleep # ?msleep para más detalles

## # A tibble: 83 x 11
##    name                     genus      vore  order       conservation sleep_total sleep_rem sleep_cycle awake  brainwt  bodywt
##    <chr>                    <chr>      <chr> <chr>       <chr>              <dbl>     <dbl>       <dbl> <dbl>    <dbl>   <dbl>
##  1 Cheetah                  Acinonyx   carni Carnivora   lc                  12.1      NA        NA      11.9 NA        50    
##  2 Owl monkey               Aotus      omni  Primates    <NA>                17         1.8      NA       7    0.0155    0.48 
##  3 Mountain beaver          Aplodontia herbi Rodentia    nt                  14.4       2.4      NA       9.6 NA         1.35 
##  4 Greater short-tailed sh~ Blarina    omni  Soricomorp~ lc                  14.9       2.3       0.133   9.1  0.00029   0.019
##  5 Cow                      Bos        herbi Artiodacty~ domesticated         4         0.7       0.667  20    0.423   600    
##  6 Three-toed sloth         Bradypus   herbi Pilosa      <NA>                14.4       2.2       0.767   9.6 NA         3.85 
##  7 Northern fur seal        Callorhin~ carni Carnivora   vu                   8.7       1.4       0.383  15.3 NA        20.5  
##  8 Vesper mouse             Calomys    <NA>  Rodentia    <NA>                 7        NA        NA      17   NA         0.045
##  9 Dog                      Canis      carni Carnivora   domesticated        10.1       2.9       0.333  13.9  0.07     14    
## 10 Roe deer                 Capreolus  herbi Artiodacty~ lc                   3        NA        NA      21    0.0982   14.8  
## # ... with 73 more rows
…
